Spiral00;0,0;240,160;0,0
Spiral01;240,0;240,160;0,0
Spiral02;480,0;240,160;0,0
Spiral03;720,0;240,160;0,0
Spiral04;0,160;240,160;0,0
Spiral05;240,160;240,160;0,0
Spiral06;480,160;240,160;0,0
Spiral07;720,160;240,160;0,0
Spiral08;0,320;240,160;0,0
Spiral09;240,320;240,160;0,0
Spiral10;480,320;240,160;0,0
