pose;Attack
blend
static
f;3;Pillars00
f;3;Pillars01
f;3;Pillars02
f;3;Pillars03
f;3;Pillars04
f;3;Pillars05
f;3;Pillars06
f;3;Pillars07
f;3;Pillars08
f;3;Pillars09
f;3;Pillars10
f;3;Pillars11
f;3;Pillars12
f;3;Pillars13
f;3;Pillars14
f;3;Pillars15
f;3;Pillars16
f;3;Pillars17
f;3;Pillars18
f;3;Pillars19
f;20;Pillars20
wait;1
