pose;Dodge
f;1;Sword_000
f;3;Sword_060
f;26;Sword_061
f;4;Sword_060

pose;Attack
f;8;Sword_000
f;2;Sword_001
f;4;Sword_002
f;2;Sword_003
f;6;Sword_004
f;2;Sword_005
f;2;Sword_006
f;8;Sword_007
sound;Weapon Pull
f;1;Sword_007
f;1;Sword_008
f;1;Sword_009
f;1;Sword_010
f;1;Sword_011
f;1;Sword_012
f;2;Sword_013;Sword_013_under
f;1;Sword_014
enemy_flash_white;8
f;1;Sword_014
screen_flash_white;4
f;1;Sword_014
f;3;Sword_015
hit_spark
start_hit
sound;Weapon Push
f;1;Sword_015
f;1;Sword_016
f;1;Sword_017
f;1;Sword_018
wait_for_hit;Sword_018
f;4;Sword_018
f;2;Sword_019
f;1;Sword_020
f;1;Sword_021
f;1;Sword_022
f;1;Sword_023
f;1;Sword_024
f;1;Sword_025
f;1;Sword_026
sound;Step Back 1
f;1;Sword_026
f;2;Sword_027
f;2;Sword_028
f;2;Sword_029
f;3;Sword_030

pose;Critical
f;6;Sword_000
f;2;Sword_031
sound;Weapon Pull
f;1;Sword_031
f;2;Sword_032
f;1;Sword_033
f;1;Sword_034
f;1;Sword_035
f;1;Sword_036
f;1;Sword_037
f;1;Sword_038
f;1;Sword_039
f;1;Sword_040
f;3;Sword_041
f;8;Sword_042
f;2;Sword_043
f;1;Sword_044
f;1;Sword_045
f;1;Sword_044
f;1;Sword_046
f;1;Sword_047
f;1;Sword_046
f;1;Sword_047
f;1;Sword_046
f;1;Sword_047
f;1;Sword_046
f;1;Sword_047
f;1;Sword_048;Sword_048_under
f;1;Sword_049;Sword_049_under
wait;1
f;1;Sword_051;Sword_051_under
f;1;Sword_052;Sword_052_under
wait;15
f;1;Sword_053;Sword_053_under
sound;Weapon Swing
f;1;Sword_053;Sword_053_under
f;1;Sword_054;Sword_054_under
f;1;Sword_055
wait;4
f;3;Sword_056
f;1;Sword_011
f;1;Sword_012
f;5;Sword_013;Sword_013_under
enemy_flash_white;8
f;1;Sword_013;Sword_013_under
foreground_blend;2;248,248,248
start_hit
f;2;Sword_014
crit_spark
f;1;Sword_015
f;1;Sword_016
sound;Weapon Push
f;1;Sword_016
f;1;Sword_017
f;1;Sword_018
wait_for_hit;Sword_018
f;4;Sword_018
f;3;Sword_019
f;2;Sword_020
f;2;Sword_021
f;1;Sword_022
f;1;Sword_023
f;1;Sword_024
f;1;Sword_025
f;1;Sword_026
sound;Step Back 1
f;1;Sword_026
f;2;Sword_027
f;2;Sword_028
f;2;Sword_029
f;3;Sword_030

pose;Miss
f;8;Sword_000
f;2;Sword_001
f;4;Sword_002
f;2;Sword_003
f;6;Sword_004
f;2;Sword_005
f;2;Sword_006
f;13;Sword_007
sound;Weapon Pull
f;1;Sword_007
f;2;Sword_008
f;1;Sword_009
f;1;Sword_010
f;2;Sword_056
f;1;Sword_012
f;1;Sword_013;Sword_013_under
f;1;Sword_014
f;2;Sword_015
sound;Weapon Push
f;1;Sword_015
f;2;Sword_016
f;2;Sword_017
f;2;Sword_018
miss
f;30;Sword_018
f;2;Sword_019
f;1;Sword_020
f;1;Sword_021
f;1;Sword_022
f;1;Sword_023
f;1;Sword_024
f;1;Sword_025
f;1;Sword_026
sound;Step Back 1
f;1;Sword_026
f;2;Sword_027
f;2;Sword_028
f;2;Sword_029
f;3;Sword_030

pose;Stand
f;4;Sword_000

