Handaxe_000;0,22;50,38;120,66
Handaxe_001;50,23;36,37;137,66
Handaxe_002;86,19;29,41;147,64
Handaxe_003;115,21;25,39;151,66
Handaxe_004;140,19;55,41;111,64
Handaxe_005;195,20;45,40;121,65
Handaxe_006;240,20;43,40;123,65
Handaxe_007;283,20;36,40;130,65
Handaxe_008;319,22;36,38;133,66
Handaxe_009;355,7;49,53;121,51
Handaxe_010;404,0;49,60;136,45
Handaxe_011;453,1;54,59;131,46
Handaxe_012;507,4;52,56;133,49
Handaxe_013;559,3;47,57;138,48
Handaxe_014;606,3;58,57;112,47
Handaxe_015;664,21;48,39;121,65
Handaxe_016;712,23;48,37;121,67
Handaxe_017;760,22;46,38;129,63
Handaxe_018;806,22;35,38;135,63
