pose;Dodge
f;1;Lance_000
f;3;Lance_038
f;27;Lance_039
f;4;Lance_038

pose;Attack
f;6;Lance_000
f;4;Lance_001
f;7;Lance_002
sound;Weapon Swing
f;1;Lance_002
f;4;Lance_003
enemy_flash_white;8
f;1;Lance_003
screen_flash_white;4
f;1;Lance_003
f;4;Lance_004;Lance_004_under
hit_spark
start_hit
f;2;Lance_005;Lance_005_under
f;2;Lance_006;Lance_006_under
f;1;Lance_007;Lance_007_under
wait_for_hit;Lance_007;Lance_007_under
f;4;Lance_007;Lance_007_under
f;3;Lance_008;Lance_008_under
sound;Weapon Pull
f;1;Lance_008;Lance_008_under
f;2;Lance_009
f;2;Lance_010
f;10;Lance_011
sound;Heavy Wing Flap
f;1;Lance_011
f;5;Lance_012
f;3;Lance_013
f;7;Lance_014
f;6;Lance_015
sound;Heavy Wing Flap
f;1;Lance_015
f;3;Lance_016
f;9;Lance_017
f;7;Lance_018
f;3;Lance_019
sound;Long Wing Flap
f;1;Lance_019
f;3;Lance_020
f;2;Lance_021
f;2;Lance_022
f;4;Lance_023
f;3;Lance_024
f;4;Lance_025
f;4;Lance_026
sound;Heavy Wing Flap
f;1;Lance_026
f;4;Lance_027

pose;Critical
f;6;Lance_000
f;3;Lance_028
sound;Heavy Spear Spin
f;1;Lance_028
f;2;Lance_029
f;1;Lance_030
f;1;Lance_031
f;2;Lance_032
sound;Heavy Spear Spin
f;1;Lance_032
f;2;Lance_029
f;1;Lance_030
f;1;Lance_031
f;2;Lance_032
sound;Heavy Spear Spin
f;1;Lance_032
f;2;Lance_029
f;1;Lance_030
f;1;Lance_031
f;2;Lance_032
sound;Heavy Spear Spin
f;1;Lance_032
f;2;Lance_029
f;1;Lance_030
f;1;Lance_031
f;2;Lance_032
f;3;Lance_033
f;2;Lance_000
f;4;Lance_001
f;7;Lance_002
sound;Weapon Swing
f;1;Lance_002
f;4;Lance_003
enemy_flash_white;8
f;1;Lance_003
foreground_blend;2;248,248,248
start_hit
f;2;Lance_004;Lance_004_under
crit_spark
f;2;Lance_005;Lance_005_under
f;2;Lance_006;Lance_006_under
f;1;Lance_007;Lance_007_under
wait_for_hit;Lance_007;Lance_007_under
f;4;Lance_007;Lance_007_under
f;3;Lance_008;Lance_008_under
sound;Weapon Pull
f;1;Lance_008;Lance_008_under
f;2;Lance_009
f;2;Lance_010
f;12;Lance_011
sound;Heavy Wing Flap
f;1;Lance_011
f;5;Lance_012
f;3;Lance_013
f;7;Lance_014
f;6;Lance_015
sound;Heavy Wing Flap
f;1;Lance_015
f;3;Lance_016
f;9;Lance_017
f;7;Lance_018
f;3;Lance_019
sound;Long Wing Flap
f;1;Lance_019
f;3;Lance_020
f;2;Lance_021
f;2;Lance_022
f;4;Lance_023
f;3;Lance_024
f;4;Lance_025
f;4;Lance_026
sound;Heavy Wing Flap
f;1;Lance_026
f;4;Lance_027

pose;Miss
f;6;Lance_000
f;4;Lance_001
f;7;Lance_002
sound;Weapon Swing
f;1;Lance_002
f;4;Lance_003
f;2;Lance_040
f;2;Lance_041
f;2;Lance_042
f;2;Lance_043
miss
f;30;Lance_043
f;3;Lance_044
sound;Weapon Pull
f;1;Lance_044
f;2;Lance_009
f;2;Lance_010
f;10;Lance_011
sound;Heavy Wing Flap
f;1;Lance_011
f;5;Lance_012
f;3;Lance_013
f;7;Lance_014
f;6;Lance_015
sound;Heavy Wing Flap
f;1;Lance_015
f;3;Lance_016
f;9;Lance_017
f;7;Lance_018
f;3;Lance_019
sound;Long Wing Flap
f;1;Lance_019
f;3;Lance_020
f;2;Lance_021
f;2;Lance_022
f;4;Lance_023
f;3;Lance_024
f;4;Lance_025
f;4;Lance_026
sound;Heavy Wing Flap
f;1;Lance_026
f;4;Lance_027

pose;Stand
f;4;Lance_000

