pose;Dodge
f;1;Bow_000
f;3;Bow_018
sound;ArmorShift
f;1;Bow_018
f;27;Bow_019
f;3;Bow_018
sound;ArmorShift
f;2;Bow_018

pose;Attack
f;6;Bow_000
f;2;Bow_001
f;4;Bow_002
sound;ArmorShift
f;1;Bow_002
f;3;Bow_003
f;4;Bow_004
f;10;Bow_005
f;4;Bow_006
f;4;Bow_007
f;4;Bow_008
f;10;Bow_009
sound;Bow
f;1;Bow_009
f;4;Bow_010
f;15;Bow_011
spell;Arrow
f;5;Bow_012
start_loop
f;4;Bow_012
end_loop
f;4;Bow_012
f;4;Bow_013
sound;ArmorShift
f;1;Bow_013
f;2;Bow_002
f;2;Bow_000

pose;Critical
f;6;Bow_000
f;2;Bow_001
f;4;Bow_002
sound;ArmorShift
f;1;Bow_002
f;3;Bow_003
f;4;Bow_004
f;10;Bow_005
f;4;Bow_006
f;4;Bow_007
f;4;Bow_008
sound;Weapon Push
f;1;Bow_008
f;2;Bow_014
f;2;Bow_015
f;2;Bow_016
sound;Weapon Push
f;1;Bow_016
f;2;Bow_017
f;2;Bow_014
f;2;Bow_015
sound;Weapon Push
f;1;Bow_015
f;2;Bow_016
f;2;Bow_017
f;2;Bow_014
sound;Weapon Push
f;1;Bow_014
f;2;Bow_015
f;2;Bow_016
f;2;Bow_017
f;7;Bow_009
sound;Bow
f;1;Bow_009
f;4;Bow_010
f;15;Bow_011
spell;Arrow
f;5;Bow_012
start_loop
f;4;Bow_012
end_loop
f;4;Bow_012
f;4;Bow_013
sound;ArmorShift
f;1;Bow_013
f;2;Bow_002
f;2;Bow_000

pose;Stand
f;4;Bow_000

