pose;Dodge
f;1;Handaxe_000
f;2;Handaxe_013
f;27;Handaxe_014
f;4;Handaxe_015
f;2;Handaxe_000

pose;Attack
f;6;Handaxe_000
sound;Axe Pull
f;1;Handaxe_000
spell;ThrowingAxe
f;3;Handaxe_001
f;1;Handaxe_002
start_loop
f;1;Handaxe_002
end_loop
f;1;Handaxe_002
f;3;Handaxe_003
f;2;Handaxe_004
f;2;Handaxe_005
f;8;Handaxe_006
f;4;Handaxe_007
f;1;Handaxe_000
start_loop
f;1;Handaxe_000
end_loop
f;9;Handaxe_000

pose;Critical
f;6;Handaxe_000
sound;Heavy Spear Spin
f;1;Handaxe_000
f;4;Handaxe_008
f;2;Handaxe_009
f;2;Handaxe_010
f;2;Handaxe_011
f;2;Handaxe_012
f;2;Handaxe_009
f;2;Handaxe_010
f;2;Handaxe_011
f;20;Handaxe_008
f;4;Handaxe_000
sound;Axe Pull
f;1;Handaxe_000
spell;ThrowingAxe
f;2;Handaxe_001
f;1;Handaxe_002
start_loop
f;1;Handaxe_002
end_loop
f;1;Handaxe_002
f;2;Handaxe_003
f;2;Handaxe_004
f;2;Handaxe_005
f;8;Handaxe_006
f;4;Handaxe_007
f;1;Handaxe_000
start_loop
f;1;Handaxe_000
end_loop
f;9;Handaxe_000

pose;Stand
f;4;Handaxe_000

