Sword_000;0,17;45,49;133,55
Sword_001;45,17;45,49;134,55
Sword_002;90,3;45,63;135,41
Sword_003;135,0;45,66;135,38
Sword_004;180,0;42,66;134,38
Sword_005;222,5;57,61;135,43
Sword_006;279,11;62,55;136,49
Sword_007;341,11;62,55;136,49
Sword_008;403,16;64,50;135,54
Sword_009;467,10;71,56;115,47
Sword_010;538,0;94,66;89,37
Sword_011;632,0;64,66;96,37
Sword_011_under;696,60;7,6;89,72
Sword_012;703,1;64,65;96,38
Sword_012_under;767,60;8,6;88,71
Sword_013;775,5;44,61;106,42
Sword_014;819,5;37,61;104,42
Sword_015;856,9;48,57;103,46
Sword_016;904,9;57,57;94,46
Sword_017;961,10;54,56;99,47
Sword_018;1015,13;51,53;103,50
Sword_019;1066,8;64,58;101,45
Sword_020;1130,8;64,58;105,45
Sword_021;0,78;59,58;124,46
Sword_022;59,83;48,53;138,51
Sword_023;107,88;35,48;140,56
Sword_024;142,88;35,48;140,56
Sword_025;177,88;38,48;140,56
Sword_026;215,88;40,48;137,56
Sword_027;255,87;42,49;135,55
Sword_028;297,74;65,62;136,42
Sword_029;362,88;58,48;136,56
Sword_030;420,69;45,67;136,37
Sword_031;465,66;62,70;136,34
Sword_032;527,84;63,52;136,52
Sword_038;590,87;44,49;134,55
Sword_039;634,86;40,50;137,54
Sword_040;674,86;48,50;136,54
Sword_041;722,70;71,66;89,37
Sword_042;793,71;72,65;88,38
