Handaxe_000;0,17;39,52;134,51
Handaxe_001;39,16;43,53;137,50
Handaxe_002;82,17;44,52;140,51
Handaxe_003;126,17;39,52;144,51
Handaxe_004;165,17;39,52;144,51
Handaxe_005;204,17;39,52;144,51
Handaxe_006;243,17;39,52;144,51
Handaxe_007;282,9;39,60;144,43
Handaxe_008;321,10;39,59;144,44
Handaxe_009;360,4;62,65;121,38
Handaxe_010;422,17;39,52;144,51
Handaxe_011;461,17;39,52;144,51
Handaxe_012;500,17;39,52;144,51
Handaxe_013;539,18;42,51;137,53
Handaxe_014;581,20;31,49;142,53
Handaxe_015;612,17;32,52;139,50
Handaxe_016;644,18;32,51;137,51
Handaxe_017;676,20;38,49;128,53
Handaxe_018;714,17;39,52;134,51
Handaxe_019;753,0;39,69;144,34
Handaxe_020;792,1;39,68;144,35
Handaxe_021;831,5;39,64;144,39
Handaxe_022;870,3;39,66;144,37
Handaxe_023;909,0;39,69;144,34
Handaxe_024;948,12;48,57;125,48
Handaxe_025;996,10;51,59;117,46
Handaxe_026;1047,9;47,60;116,45
Handaxe_027;1094,10;51,59;117,46
