if;self.unit.team == 'player'
    if;self.unit2.name == 'Ghreb'
        if;'GhrebDefault' not in gameStateObj.level_constants
            u;Ghreb;Left
            s;Ghreb;I-I'm only doing this to survive !
            r;Ghreb
            set_level_constant;GhrebDefault
        end
    end
end